idExerc,IdProg,place,nb_rep,temps,repos,%fcm,puiss,cadence
1,1,1,1,240,0,65,,100
2,1,2,1,60,0,50,,
3,1,3,1,30,0,50,,
4,1,4,2,30,0,50,,
1,1,5,1,240,0,70,,100
2,1,6,1,60,0,50,,
3,1,7,1,30,0,50,,
4,1,8,2,30,0,50,,
1,1,9,1,240,0,70,,100
2,1,10,1,60,0,50,,
3,1,11,1,30,0,50,,
4,1,12,2,30,0,50,,
1,1,13,1,240,0,70,,100
2,1,14,1,60,0,50,,
3,1,15,1,30,0,50,,
4,1,16,2,30,0,50,,
5,2,1,1,480,0,60,,80
6,2,2,1,480,0,65,,85
6,2,3,1,480,0,70,,90
6,2,4,1,480,0,75,,95
6,2,5,1,480,0,80,,100
7,3,1,1,1200,0,60,,85
8,3,2,6,10,60,75,,100
1,3,3,1,780,0,65,,100
7,4,1,1,900,0,70,,80
9,4,2,1,120,0,85,,50
10,4,3,1,10,0,80,,120
1,4,4,1,120,0,75,,100
9,4,5,1,120,0,85,,50
10,4,6,1,10,0,80,,120
1,4,7,1,120,0,75,,100
9,4,8,1,120,0,85,,50
10,4,9,1,10,0,80,,120
1,4,10,1,120,0,75,,100
9,4,11,1,120,0,85,,50
10,4,12,1,10,0,80,,120
1,4,13,1,120,0,75,,100
9,4,14,1,120,0,85,,50
10,4,15,1,10,0,80,,120
1,4,16,1,300,0,65,,100
5,5,1,1,240,0,70,,
1,5,2,1,420,240,75,,100
11,5,3,3,30,120,70,,90
9,5,4,2,300,300,85,,100
5,6,1,1,240,0,50,,70
1,6,2,1,420,0,70,,90
12,6,3,6,30,30,90,,
1,6,4,1,600,0,70,,90
12,6,5,6,30,30,90,,
1,6,6,1,600,0,70,,90
2,6,7,1,120,0,55,,50
7,7,1,1,900,0,90,,
1,7,2,2,600,600,90,,
1,8,1,1,120,0,50,,70
1,8,2,1,120,0,50,,75
1,8,3,1,120,0,55,,80
1,8,4,1,120,0,55,,85
1,8,5,1,120,0,60,,90
1,8,6,1,120,0,60,,95
1,8,7,1,120,0,65,,100
1,8,8,1,120,0,65,,105
1,8,9,1,120,0,70,,110
1,8,10,1,120,0,70,,115
1,8,11,1,720,0,75,,115
2,8,12,1,300,0,55,,
7,9,1,1,900,0,75,,
7,9,2,1,300,300,100,,
11,9,3,4,35,300,90,,
1,10,1,1,300,0,60,,
1,10,2,1,300,0,70,,
8,10,3,1,25,0,90,,
1,10,4,1,300,0,60,,
1,10,5,1,300,0,70,,
8,10,6,1,25,0,90,,
1,10,7,1,300,0,60,,
1,10,8,1,300,0,70,,
8,10,9,1,25,0,90,,
1,10,10,1,120,0,70,,
1,10,11,1,180,0,65,,
1,10,12,1,120,0,60,,
1,10,13,1,180,0,75,,
1,10,15,1,120,0,60,,
1,10,16,1,180,0,80,,
1,10,17,1,120,0,60,,
5,11,1,1,600,0,55,,80
12,11,2,1,1200,0,85,,50