-- Merging decision tree log ---
manifest
ADDED from C:\Users\axelm\Desktop\COURS IUT INFO\Semestre 3\M3302 - Projet tutore - Mise en situation professionnelle\ptut-home-trainer\Home_Biking\Android\gen\AndroidManifest.xml:2:1-5859
INJECTED from C:\Users\axelm\Desktop\COURS IUT INFO\Semestre 3\M3302 - Projet tutore - Mise en situation professionnelle\ptut-home-trainer\Home_Biking\Android\gen\AndroidManifest.xml:2:1-5859
INJECTED from C:\Users\axelm\Desktop\COURS IUT INFO\Semestre 3\M3302 - Projet tutore - Mise en situation professionnelle\ptut-home-trainer\Home_Biking\Android\gen\AndroidManifest.xml:2:1-5859
INJECTED from C:\Users\axelm\Desktop\COURS IUT INFO\Semestre 3\M3302 - Projet tutore - Mise en situation professionnelle\ptut-home-trainer\Home_Biking\Android\gen\AndroidManifest.xml:2:1-5859
MERGED from [WD250Android.aar] C:\Users\axelm\.gradle\caches\transforms-2\files-2.1\aa17e02c37c68a248610e8389c2b7de6\WD250Android\AndroidManifest.xml:2:1-11:12
MERGED from [com.android.support:support-v4:28.0.0] C:\Users\axelm\.gradle\caches\transforms-2\files-2.1\69ee415b12564ec70670df83c9fdfa6f\support-v4-28.0.0\AndroidManifest.xml:17:1-22:12
MERGED from [com.android.support:appcompat-v7:28.0.0] C:\Users\axelm\.gradle\caches\transforms-2\files-2.1\bbf07aa1da9ab954374e693dfcc335b9\appcompat-v7-28.0.0\AndroidManifest.xml:17:1-22:12
MERGED from [com.android.support:recyclerview-v7:28.0.0] C:\Users\axelm\.gradle\caches\transforms-2\files-2.1\967e8d778145ef395ac0dc868ec88b33\recyclerview-v7-28.0.0\AndroidManifest.xml:17:1-22:12
MERGED from [com.android.support:support-media-compat:28.0.0] C:\Users\axelm\.gradle\caches\transforms-2\files-2.1\d1a6c7ee41fbe72753318d9586f1a513\support-media-compat-28.0.0\AndroidManifest.xml:17:1-22:12
MERGED from [com.android.support:support-fragment:28.0.0] C:\Users\axelm\.gradle\caches\transforms-2\files-2.1\59df75d251431efe4d450d41cc6b083b\support-fragment-28.0.0\AndroidManifest.xml:17:1-22:12
MERGED from [com.android.support:animated-vector-drawable:28.0.0] C:\Users\axelm\.gradle\caches\transforms-2\files-2.1\45d50504f4c11c4f549bb8efafb39de8\animated-vector-drawable-28.0.0\AndroidManifest.xml:17:1-22:12
MERGED from [com.android.support:support-core-ui:28.0.0] C:\Users\axelm\.gradle\caches\transforms-2\files-2.1\ee7de4c472f1da0a0213606950b8c4e7\support-core-ui-28.0.0\AndroidManifest.xml:17:1-22:12
MERGED from [com.android.support:support-core-utils:28.0.0] C:\Users\axelm\.gradle\caches\transforms-2\files-2.1\e6827550b79bb297911c95f109ecf5ac\support-core-utils-28.0.0\AndroidManifest.xml:17:1-22:12
MERGED from [com.android.support:support-vector-drawable:28.0.0] C:\Users\axelm\.gradle\caches\transforms-2\files-2.1\cd2aa2e9401906350c2bd9da065e1f33\support-vector-drawable-28.0.0\AndroidManifest.xml:17:1-22:12
MERGED from [com.android.support:loader:28.0.0] C:\Users\axelm\.gradle\caches\transforms-2\files-2.1\e8e201b21520ad3812ed914e69a9b405\loader-28.0.0\AndroidManifest.xml:17:1-22:12
MERGED from [com.android.support:viewpager:28.0.0] C:\Users\axelm\.gradle\caches\transforms-2\files-2.1\00866cffd6a67b64ccbc8d2d951560dc\viewpager-28.0.0\AndroidManifest.xml:17:1-22:12
MERGED from [com.android.support:coordinatorlayout:28.0.0] C:\Users\axelm\.gradle\caches\transforms-2\files-2.1\5d3c4801a740528a85d2e670b2dd23b7\coordinatorlayout-28.0.0\AndroidManifest.xml:17:1-22:12
MERGED from [com.android.support:drawerlayout:28.0.0] C:\Users\axelm\.gradle\caches\transforms-2\files-2.1\109e2debe5d47fa4d8f7fe1f15c611f3\drawerlayout-28.0.0\AndroidManifest.xml:17:1-22:12
MERGED from [com.android.support:slidingpanelayout:28.0.0] C:\Users\axelm\.gradle\caches\transforms-2\files-2.1\640954c0bd14789761b1de9b02daedae\slidingpanelayout-28.0.0\AndroidManifest.xml:17:1-22:12
MERGED from [com.android.support:customview:28.0.0] C:\Users\axelm\.gradle\caches\transforms-2\files-2.1\8c3534d87178de95eb9cb75f77214055\customview-28.0.0\AndroidManifest.xml:17:1-22:12
MERGED from [com.android.support:swiperefreshlayout:28.0.0] C:\Users\axelm\.gradle\caches\transforms-2\files-2.1\49f9e7bd74012c3341e4a938529d56fe\swiperefreshlayout-28.0.0\AndroidManifest.xml:17:1-22:12
MERGED from [com.android.support:asynclayoutinflater:28.0.0] C:\Users\axelm\.gradle\caches\transforms-2\files-2.1\699e03d2cbc668da0d189768d4447a8b\asynclayoutinflater-28.0.0\AndroidManifest.xml:17:1-22:12
MERGED from [com.android.support:support-compat:28.0.0] C:\Users\axelm\.gradle\caches\transforms-2\files-2.1\dd1cf78f22bdd94f550130b281f27c97\support-compat-28.0.0\AndroidManifest.xml:17:1-24:12
MERGED from [com.android.support:versionedparcelable:28.0.0] C:\Users\axelm\.gradle\caches\transforms-2\files-2.1\8bb2478d12c0baf5b421024800cd7dbb\versionedparcelable-28.0.0\AndroidManifest.xml:17:1-25:12
MERGED from [com.android.support:cursoradapter:28.0.0] C:\Users\axelm\.gradle\caches\transforms-2\files-2.1\406adf1b047a0fb17968819a70f96dd9\cursoradapter-28.0.0\AndroidManifest.xml:17:1-22:12
MERGED from [android.arch.lifecycle:runtime:1.1.1] C:\Users\axelm\.gradle\caches\transforms-2\files-2.1\2a54fb7d4a09e43fd13a659c38a9bf2a\runtime-1.1.1\AndroidManifest.xml:17:1-22:12
MERGED from [com.android.support:documentfile:28.0.0] C:\Users\axelm\.gradle\caches\transforms-2\files-2.1\d86ffcf39ba8aec22a7ebfd4c1172e3f\documentfile-28.0.0\AndroidManifest.xml:17:1-22:12
MERGED from [com.android.support:localbroadcastmanager:28.0.0] C:\Users\axelm\.gradle\caches\transforms-2\files-2.1\7f3ed6ce49569e0dbf9accf24b63a15b\localbroadcastmanager-28.0.0\AndroidManifest.xml:17:1-22:12
MERGED from [com.android.support:print:28.0.0] C:\Users\axelm\.gradle\caches\transforms-2\files-2.1\707c6356496c3791d321c055fe777af8\print-28.0.0\AndroidManifest.xml:17:1-22:12
MERGED from [com.android.support:interpolator:28.0.0] C:\Users\axelm\.gradle\caches\transforms-2\files-2.1\525bf97e52a2b96ba94f7509a71e8a56\interpolator-28.0.0\AndroidManifest.xml:17:1-22:12
MERGED from [android.arch.lifecycle:viewmodel:1.1.1] C:\Users\axelm\.gradle\caches\transforms-2\files-2.1\426821499609b124edd91485548e30d0\viewmodel-1.1.1\AndroidManifest.xml:17:1-22:12
MERGED from [android.arch.lifecycle:livedata:1.1.1] C:\Users\axelm\.gradle\caches\transforms-2\files-2.1\b5f1a18436322a4d6243b4d563cfece4\livedata-1.1.1\AndroidManifest.xml:17:1-22:12
MERGED from [android.arch.lifecycle:livedata-core:1.1.1] C:\Users\axelm\.gradle\caches\transforms-2\files-2.1\6104c576404b17797d5f42ae60105d1d\livedata-core-1.1.1\AndroidManifest.xml:17:1-22:12
MERGED from [android.arch.core:runtime:1.1.1] C:\Users\axelm\.gradle\caches\transforms-2\files-2.1\7c5e711cb7599bc18a19cc1df98bc8d6\runtime-1.1.1\AndroidManifest.xml:17:1-22:12
INJECTED from C:\Users\axelm\Desktop\COURS IUT INFO\Semestre 3\M3302 - Projet tutore - Mise en situation professionnelle\ptut-home-trainer\Home_Biking\Android\gen\AndroidManifest.xml:2:1-5859
INJECTED from C:\Users\axelm\Desktop\COURS IUT INFO\Semestre 3\M3302 - Projet tutore - Mise en situation professionnelle\ptut-home-trainer\Home_Biking\Android\gen\AndroidManifest.xml:2:1-5859
INJECTED from C:\Users\axelm\Desktop\COURS IUT INFO\Semestre 3\M3302 - Projet tutore - Mise en situation professionnelle\ptut-home-trainer\Home_Biking\Android\gen\AndroidManifest.xml:2:1-5859
	package
		ADDED from C:\Users\axelm\Desktop\COURS IUT INFO\Semestre 3\M3302 - Projet tutore - Mise en situation professionnelle\ptut-home-trainer\Home_Biking\Android\gen\AndroidManifest.xml:2:117-151
		INJECTED from C:\Users\axelm\Desktop\COURS IUT INFO\Semestre 3\M3302 - Projet tutore - Mise en situation professionnelle\ptut-home-trainer\Home_Biking\Android\gen\AndroidManifest.xml
		INJECTED from C:\Users\axelm\Desktop\COURS IUT INFO\Semestre 3\M3302 - Projet tutore - Mise en situation professionnelle\ptut-home-trainer\Home_Biking\Android\gen\AndroidManifest.xml
	android:versionName
		ADDED from C:\Users\axelm\Desktop\COURS IUT INFO\Semestre 3\M3302 - Projet tutore - Mise en situation professionnelle\ptut-home-trainer\Home_Biking\Android\gen\AndroidManifest.xml:2:152-183
		INJECTED from C:\Users\axelm\Desktop\COURS IUT INFO\Semestre 3\M3302 - Projet tutore - Mise en situation professionnelle\ptut-home-trainer\Home_Biking\Android\gen\AndroidManifest.xml
		INJECTED from C:\Users\axelm\Desktop\COURS IUT INFO\Semestre 3\M3302 - Projet tutore - Mise en situation professionnelle\ptut-home-trainer\Home_Biking\Android\gen\AndroidManifest.xml
	xmlns:tools
		ADDED from C:\Users\axelm\Desktop\COURS IUT INFO\Semestre 3\M3302 - Projet tutore - Mise en situation professionnelle\ptut-home-trainer\Home_Biking\Android\gen\AndroidManifest.xml:2:70-116
	xmlns:android
		ADDED from C:\Users\axelm\Desktop\COURS IUT INFO\Semestre 3\M3302 - Projet tutore - Mise en situation professionnelle\ptut-home-trainer\Home_Biking\Android\gen\AndroidManifest.xml:2:11-69
	android:versionCode
		ADDED from C:\Users\axelm\Desktop\COURS IUT INFO\Semestre 3\M3302 - Projet tutore - Mise en situation professionnelle\ptut-home-trainer\Home_Biking\Android\gen\AndroidManifest.xml:2:184-209
		INJECTED from C:\Users\axelm\Desktop\COURS IUT INFO\Semestre 3\M3302 - Projet tutore - Mise en situation professionnelle\ptut-home-trainer\Home_Biking\Android\gen\AndroidManifest.xml
		INJECTED from C:\Users\axelm\Desktop\COURS IUT INFO\Semestre 3\M3302 - Projet tutore - Mise en situation professionnelle\ptut-home-trainer\Home_Biking\Android\gen\AndroidManifest.xml
	android:installLocation
		ADDED from C:\Users\axelm\Desktop\COURS IUT INFO\Semestre 3\M3302 - Projet tutore - Mise en situation professionnelle\ptut-home-trainer\Home_Biking\Android\gen\AndroidManifest.xml:2:210-240
application
ADDED from C:\Users\axelm\Desktop\COURS IUT INFO\Semestre 3\M3302 - Projet tutore - Mise en situation professionnelle\ptut-home-trainer\Home_Biking\Android\gen\AndroidManifest.xml:2:241-5546
MERGED from [com.android.support:support-compat:28.0.0] C:\Users\axelm\.gradle\caches\transforms-2\files-2.1\dd1cf78f22bdd94f550130b281f27c97\support-compat-28.0.0\AndroidManifest.xml:22:5-94
MERGED from [com.android.support:support-compat:28.0.0] C:\Users\axelm\.gradle\caches\transforms-2\files-2.1\dd1cf78f22bdd94f550130b281f27c97\support-compat-28.0.0\AndroidManifest.xml:22:5-94
MERGED from [com.android.support:versionedparcelable:28.0.0] C:\Users\axelm\.gradle\caches\transforms-2\files-2.1\8bb2478d12c0baf5b421024800cd7dbb\versionedparcelable-28.0.0\AndroidManifest.xml:22:5-23:19
MERGED from [com.android.support:versionedparcelable:28.0.0] C:\Users\axelm\.gradle\caches\transforms-2\files-2.1\8bb2478d12c0baf5b421024800cd7dbb\versionedparcelable-28.0.0\AndroidManifest.xml:22:5-23:19
	android:appComponentFactory
		ADDED from [com.android.support:support-compat:28.0.0] C:\Users\axelm\.gradle\caches\transforms-2\files-2.1\dd1cf78f22bdd94f550130b281f27c97\support-compat-28.0.0\AndroidManifest.xml:22:18-91
	android:label
		ADDED from C:\Users\axelm\Desktop\COURS IUT INFO\Semestre 3\M3302 - Projet tutore - Mise en situation professionnelle\ptut-home-trainer\Home_Biking\Android\gen\AndroidManifest.xml:2:316-348
	android:resizeableActivity
		ADDED from C:\Users\axelm\Desktop\COURS IUT INFO\Semestre 3\M3302 - Projet tutore - Mise en situation professionnelle\ptut-home-trainer\Home_Biking\Android\gen\AndroidManifest.xml:2:419-452
	android:largeHeap
		ADDED from C:\Users\axelm\Desktop\COURS IUT INFO\Semestre 3\M3302 - Projet tutore - Mise en situation professionnelle\ptut-home-trainer\Home_Biking\Android\gen\AndroidManifest.xml:2:393-417
	android:icon
		ADDED from C:\Users\axelm\Desktop\COURS IUT INFO\Semestre 3\M3302 - Projet tutore - Mise en situation professionnelle\ptut-home-trainer\Home_Biking\Android\gen\AndroidManifest.xml:2:349-392
	android:usesCleartextTraffic
		ADDED from C:\Users\axelm\Desktop\COURS IUT INFO\Semestre 3\M3302 - Projet tutore - Mise en situation professionnelle\ptut-home-trainer\Home_Biking\Android\gen\AndroidManifest.xml:2:453-488
	android:name
		ADDED from C:\Users\axelm\Desktop\COURS IUT INFO\Semestre 3\M3302 - Projet tutore - Mise en situation professionnelle\ptut-home-trainer\Home_Biking\Android\gen\AndroidManifest.xml:2:254-315
activity#com.logicorp.home_biking.wdgen.GWDPHome_Biking$WDLanceur
ADDED from C:\Users\axelm\Desktop\COURS IUT INFO\Semestre 3\M3302 - Projet tutore - Mise en situation professionnelle\ptut-home-trainer\Home_Biking\Android\gen\AndroidManifest.xml:2:489-904
	android:label
		ADDED from C:\Users\axelm\Desktop\COURS IUT INFO\Semestre 3\M3302 - Projet tutore - Mise en situation professionnelle\ptut-home-trainer\Home_Biking\Android\gen\AndroidManifest.xml:2:547-579
	android:configChanges
		ADDED from C:\Users\axelm\Desktop\COURS IUT INFO\Semestre 3\M3302 - Projet tutore - Mise en situation professionnelle\ptut-home-trainer\Home_Biking\Android\gen\AndroidManifest.xml:2:649-751
	android:theme
		ADDED from C:\Users\axelm\Desktop\COURS IUT INFO\Semestre 3\M3302 - Projet tutore - Mise en situation professionnelle\ptut-home-trainer\Home_Biking\Android\gen\AndroidManifest.xml:2:580-648
	android:name
		ADDED from C:\Users\axelm\Desktop\COURS IUT INFO\Semestre 3\M3302 - Projet tutore - Mise en situation professionnelle\ptut-home-trainer\Home_Biking\Android\gen\AndroidManifest.xml:2:499-546
intent-filter#action:name:android.intent.action.MAIN+category:name:android.intent.category.LAUNCHER
ADDED from C:\Users\axelm\Desktop\COURS IUT INFO\Semestre 3\M3302 - Projet tutore - Mise en situation professionnelle\ptut-home-trainer\Home_Biking\Android\gen\AndroidManifest.xml:2:752-893
action#android.intent.action.MAIN
ADDED from C:\Users\axelm\Desktop\COURS IUT INFO\Semestre 3\M3302 - Projet tutore - Mise en situation professionnelle\ptut-home-trainer\Home_Biking\Android\gen\AndroidManifest.xml:2:767-818
	android:name
		ADDED from C:\Users\axelm\Desktop\COURS IUT INFO\Semestre 3\M3302 - Projet tutore - Mise en situation professionnelle\ptut-home-trainer\Home_Biking\Android\gen\AndroidManifest.xml:2:775-816
category#android.intent.category.LAUNCHER
ADDED from C:\Users\axelm\Desktop\COURS IUT INFO\Semestre 3\M3302 - Projet tutore - Mise en situation professionnelle\ptut-home-trainer\Home_Biking\Android\gen\AndroidManifest.xml:2:818-877
	android:name
		ADDED from C:\Users\axelm\Desktop\COURS IUT INFO\Semestre 3\M3302 - Projet tutore - Mise en situation professionnelle\ptut-home-trainer\Home_Biking\Android\gen\AndroidManifest.xml:2:828-875
activity#com.logicorp.home_biking.wdgen.GWDFFEN_User_Profile$WDActiviteFenetre
ADDED from C:\Users\axelm\Desktop\COURS IUT INFO\Semestre 3\M3302 - Projet tutore - Mise en situation professionnelle\ptut-home-trainer\Home_Biking\Android\gen\AndroidManifest.xml:2:904-1195
	android:screenOrientation
		ADDED from C:\Users\axelm\Desktop\COURS IUT INFO\Semestre 3\M3302 - Projet tutore - Mise en situation professionnelle\ptut-home-trainer\Home_Biking\Android\gen\AndroidManifest.xml:2:1115-1157
	android:hardwareAccelerated
		ADDED from C:\Users\axelm\Desktop\COURS IUT INFO\Semestre 3\M3302 - Projet tutore - Mise en situation professionnelle\ptut-home-trainer\Home_Biking\Android\gen\AndroidManifest.xml:2:1158-1193
	android:configChanges
		ADDED from C:\Users\axelm\Desktop\COURS IUT INFO\Semestre 3\M3302 - Projet tutore - Mise en situation professionnelle\ptut-home-trainer\Home_Biking\Android\gen\AndroidManifest.xml:2:975-1077
	android:theme
		ADDED from C:\Users\axelm\Desktop\COURS IUT INFO\Semestre 3\M3302 - Projet tutore - Mise en situation professionnelle\ptut-home-trainer\Home_Biking\Android\gen\AndroidManifest.xml:2:1078-1114
	android:name
		ADDED from C:\Users\axelm\Desktop\COURS IUT INFO\Semestre 3\M3302 - Projet tutore - Mise en situation professionnelle\ptut-home-trainer\Home_Biking\Android\gen\AndroidManifest.xml:2:914-974
activity#com.logicorp.home_biking.wdgen.GWDFFEN_BaseSolide$WDActiviteFenetre
ADDED from C:\Users\axelm\Desktop\COURS IUT INFO\Semestre 3\M3302 - Projet tutore - Mise en situation professionnelle\ptut-home-trainer\Home_Biking\Android\gen\AndroidManifest.xml:2:1195-1484
	android:screenOrientation
		ADDED from C:\Users\axelm\Desktop\COURS IUT INFO\Semestre 3\M3302 - Projet tutore - Mise en situation professionnelle\ptut-home-trainer\Home_Biking\Android\gen\AndroidManifest.xml:2:1404-1446
	android:hardwareAccelerated
		ADDED from C:\Users\axelm\Desktop\COURS IUT INFO\Semestre 3\M3302 - Projet tutore - Mise en situation professionnelle\ptut-home-trainer\Home_Biking\Android\gen\AndroidManifest.xml:2:1447-1482
	android:configChanges
		ADDED from C:\Users\axelm\Desktop\COURS IUT INFO\Semestre 3\M3302 - Projet tutore - Mise en situation professionnelle\ptut-home-trainer\Home_Biking\Android\gen\AndroidManifest.xml:2:1264-1366
	android:theme
		ADDED from C:\Users\axelm\Desktop\COURS IUT INFO\Semestre 3\M3302 - Projet tutore - Mise en situation professionnelle\ptut-home-trainer\Home_Biking\Android\gen\AndroidManifest.xml:2:1367-1403
	android:name
		ADDED from C:\Users\axelm\Desktop\COURS IUT INFO\Semestre 3\M3302 - Projet tutore - Mise en situation professionnelle\ptut-home-trainer\Home_Biking\Android\gen\AndroidManifest.xml:2:1205-1263
activity#com.logicorp.home_biking.wdgen.GWDFFEN_Description_Exo$WDActiviteFenetre
ADDED from C:\Users\axelm\Desktop\COURS IUT INFO\Semestre 3\M3302 - Projet tutore - Mise en situation professionnelle\ptut-home-trainer\Home_Biking\Android\gen\AndroidManifest.xml:2:1484-1779
	android:screenOrientation
		ADDED from C:\Users\axelm\Desktop\COURS IUT INFO\Semestre 3\M3302 - Projet tutore - Mise en situation professionnelle\ptut-home-trainer\Home_Biking\Android\gen\AndroidManifest.xml:2:1698-1741
	android:hardwareAccelerated
		ADDED from C:\Users\axelm\Desktop\COURS IUT INFO\Semestre 3\M3302 - Projet tutore - Mise en situation professionnelle\ptut-home-trainer\Home_Biking\Android\gen\AndroidManifest.xml:2:1742-1777
	android:configChanges
		ADDED from C:\Users\axelm\Desktop\COURS IUT INFO\Semestre 3\M3302 - Projet tutore - Mise en situation professionnelle\ptut-home-trainer\Home_Biking\Android\gen\AndroidManifest.xml:2:1558-1660
	android:theme
		ADDED from C:\Users\axelm\Desktop\COURS IUT INFO\Semestre 3\M3302 - Projet tutore - Mise en situation professionnelle\ptut-home-trainer\Home_Biking\Android\gen\AndroidManifest.xml:2:1661-1697
	android:name
		ADDED from C:\Users\axelm\Desktop\COURS IUT INFO\Semestre 3\M3302 - Projet tutore - Mise en situation professionnelle\ptut-home-trainer\Home_Biking\Android\gen\AndroidManifest.xml:2:1494-1557
activity#com.logicorp.home_biking.wdgen.GWDFFEN_CreationTables$WDActiviteFenetre
ADDED from C:\Users\axelm\Desktop\COURS IUT INFO\Semestre 3\M3302 - Projet tutore - Mise en situation professionnelle\ptut-home-trainer\Home_Biking\Android\gen\AndroidManifest.xml:2:1779-2072
	android:screenOrientation
		ADDED from C:\Users\axelm\Desktop\COURS IUT INFO\Semestre 3\M3302 - Projet tutore - Mise en situation professionnelle\ptut-home-trainer\Home_Biking\Android\gen\AndroidManifest.xml:2:1992-2034
	android:hardwareAccelerated
		ADDED from C:\Users\axelm\Desktop\COURS IUT INFO\Semestre 3\M3302 - Projet tutore - Mise en situation professionnelle\ptut-home-trainer\Home_Biking\Android\gen\AndroidManifest.xml:2:2035-2070
	android:configChanges
		ADDED from C:\Users\axelm\Desktop\COURS IUT INFO\Semestre 3\M3302 - Projet tutore - Mise en situation professionnelle\ptut-home-trainer\Home_Biking\Android\gen\AndroidManifest.xml:2:1852-1954
	android:theme
		ADDED from C:\Users\axelm\Desktop\COURS IUT INFO\Semestre 3\M3302 - Projet tutore - Mise en situation professionnelle\ptut-home-trainer\Home_Biking\Android\gen\AndroidManifest.xml:2:1955-1991
	android:name
		ADDED from C:\Users\axelm\Desktop\COURS IUT INFO\Semestre 3\M3302 - Projet tutore - Mise en situation professionnelle\ptut-home-trainer\Home_Biking\Android\gen\AndroidManifest.xml:2:1789-1851
activity#com.logicorp.home_biking.wdgen.GWDFFEN_Programm_Preregister3$WDActiviteFenetre
ADDED from C:\Users\axelm\Desktop\COURS IUT INFO\Semestre 3\M3302 - Projet tutore - Mise en situation professionnelle\ptut-home-trainer\Home_Biking\Android\gen\AndroidManifest.xml:2:2072-2372
	android:screenOrientation
		ADDED from C:\Users\axelm\Desktop\COURS IUT INFO\Semestre 3\M3302 - Projet tutore - Mise en situation professionnelle\ptut-home-trainer\Home_Biking\Android\gen\AndroidManifest.xml:2:2292-2334
	android:hardwareAccelerated
		ADDED from C:\Users\axelm\Desktop\COURS IUT INFO\Semestre 3\M3302 - Projet tutore - Mise en situation professionnelle\ptut-home-trainer\Home_Biking\Android\gen\AndroidManifest.xml:2:2335-2370
	android:configChanges
		ADDED from C:\Users\axelm\Desktop\COURS IUT INFO\Semestre 3\M3302 - Projet tutore - Mise en situation professionnelle\ptut-home-trainer\Home_Biking\Android\gen\AndroidManifest.xml:2:2152-2254
	android:theme
		ADDED from C:\Users\axelm\Desktop\COURS IUT INFO\Semestre 3\M3302 - Projet tutore - Mise en situation professionnelle\ptut-home-trainer\Home_Biking\Android\gen\AndroidManifest.xml:2:2255-2291
	android:name
		ADDED from C:\Users\axelm\Desktop\COURS IUT INFO\Semestre 3\M3302 - Projet tutore - Mise en situation professionnelle\ptut-home-trainer\Home_Biking\Android\gen\AndroidManifest.xml:2:2082-2151
activity#com.logicorp.home_biking.wdgen.GWDFFEN_Splash_Screen$WDActiviteFenetre
ADDED from C:\Users\axelm\Desktop\COURS IUT INFO\Semestre 3\M3302 - Projet tutore - Mise en situation professionnelle\ptut-home-trainer\Home_Biking\Android\gen\AndroidManifest.xml:2:2372-2664
	android:screenOrientation
		ADDED from C:\Users\axelm\Desktop\COURS IUT INFO\Semestre 3\M3302 - Projet tutore - Mise en situation professionnelle\ptut-home-trainer\Home_Biking\Android\gen\AndroidManifest.xml:2:2584-2626
	android:hardwareAccelerated
		ADDED from C:\Users\axelm\Desktop\COURS IUT INFO\Semestre 3\M3302 - Projet tutore - Mise en situation professionnelle\ptut-home-trainer\Home_Biking\Android\gen\AndroidManifest.xml:2:2627-2662
	android:configChanges
		ADDED from C:\Users\axelm\Desktop\COURS IUT INFO\Semestre 3\M3302 - Projet tutore - Mise en situation professionnelle\ptut-home-trainer\Home_Biking\Android\gen\AndroidManifest.xml:2:2444-2546
	android:theme
		ADDED from C:\Users\axelm\Desktop\COURS IUT INFO\Semestre 3\M3302 - Projet tutore - Mise en situation professionnelle\ptut-home-trainer\Home_Biking\Android\gen\AndroidManifest.xml:2:2547-2583
	android:name
		ADDED from C:\Users\axelm\Desktop\COURS IUT INFO\Semestre 3\M3302 - Projet tutore - Mise en situation professionnelle\ptut-home-trainer\Home_Biking\Android\gen\AndroidManifest.xml:2:2382-2443
activity#com.logicorp.home_biking.wdgen.GWDFFEN_Creation_Prog$WDActiviteFenetre
ADDED from C:\Users\axelm\Desktop\COURS IUT INFO\Semestre 3\M3302 - Projet tutore - Mise en situation professionnelle\ptut-home-trainer\Home_Biking\Android\gen\AndroidManifest.xml:2:2664-2956
	android:screenOrientation
		ADDED from C:\Users\axelm\Desktop\COURS IUT INFO\Semestre 3\M3302 - Projet tutore - Mise en situation professionnelle\ptut-home-trainer\Home_Biking\Android\gen\AndroidManifest.xml:2:2876-2918
	android:hardwareAccelerated
		ADDED from C:\Users\axelm\Desktop\COURS IUT INFO\Semestre 3\M3302 - Projet tutore - Mise en situation professionnelle\ptut-home-trainer\Home_Biking\Android\gen\AndroidManifest.xml:2:2919-2954
	android:configChanges
		ADDED from C:\Users\axelm\Desktop\COURS IUT INFO\Semestre 3\M3302 - Projet tutore - Mise en situation professionnelle\ptut-home-trainer\Home_Biking\Android\gen\AndroidManifest.xml:2:2736-2838
	android:theme
		ADDED from C:\Users\axelm\Desktop\COURS IUT INFO\Semestre 3\M3302 - Projet tutore - Mise en situation professionnelle\ptut-home-trainer\Home_Biking\Android\gen\AndroidManifest.xml:2:2839-2875
	android:name
		ADDED from C:\Users\axelm\Desktop\COURS IUT INFO\Semestre 3\M3302 - Projet tutore - Mise en situation professionnelle\ptut-home-trainer\Home_Biking\Android\gen\AndroidManifest.xml:2:2674-2735
activity#com.logicorp.home_biking.wdgen.GWDFFEN_Exercice_Prog_Detail$WDActiviteFenetre
ADDED from C:\Users\axelm\Desktop\COURS IUT INFO\Semestre 3\M3302 - Projet tutore - Mise en situation professionnelle\ptut-home-trainer\Home_Biking\Android\gen\AndroidManifest.xml:2:2956-3255
	android:screenOrientation
		ADDED from C:\Users\axelm\Desktop\COURS IUT INFO\Semestre 3\M3302 - Projet tutore - Mise en situation professionnelle\ptut-home-trainer\Home_Biking\Android\gen\AndroidManifest.xml:2:3175-3217
	android:hardwareAccelerated
		ADDED from C:\Users\axelm\Desktop\COURS IUT INFO\Semestre 3\M3302 - Projet tutore - Mise en situation professionnelle\ptut-home-trainer\Home_Biking\Android\gen\AndroidManifest.xml:2:3218-3253
	android:configChanges
		ADDED from C:\Users\axelm\Desktop\COURS IUT INFO\Semestre 3\M3302 - Projet tutore - Mise en situation professionnelle\ptut-home-trainer\Home_Biking\Android\gen\AndroidManifest.xml:2:3035-3137
	android:theme
		ADDED from C:\Users\axelm\Desktop\COURS IUT INFO\Semestre 3\M3302 - Projet tutore - Mise en situation professionnelle\ptut-home-trainer\Home_Biking\Android\gen\AndroidManifest.xml:2:3138-3174
	android:name
		ADDED from C:\Users\axelm\Desktop\COURS IUT INFO\Semestre 3\M3302 - Projet tutore - Mise en situation professionnelle\ptut-home-trainer\Home_Biking\Android\gen\AndroidManifest.xml:2:2966-3034
activity#com.logicorp.home_biking.wdgen.GWDFFEN_Preseance$WDActiviteFenetre
ADDED from C:\Users\axelm\Desktop\COURS IUT INFO\Semestre 3\M3302 - Projet tutore - Mise en situation professionnelle\ptut-home-trainer\Home_Biking\Android\gen\AndroidManifest.xml:2:3255-3544
	android:screenOrientation
		ADDED from C:\Users\axelm\Desktop\COURS IUT INFO\Semestre 3\M3302 - Projet tutore - Mise en situation professionnelle\ptut-home-trainer\Home_Biking\Android\gen\AndroidManifest.xml:2:3463-3506
	android:hardwareAccelerated
		ADDED from C:\Users\axelm\Desktop\COURS IUT INFO\Semestre 3\M3302 - Projet tutore - Mise en situation professionnelle\ptut-home-trainer\Home_Biking\Android\gen\AndroidManifest.xml:2:3507-3542
	android:configChanges
		ADDED from C:\Users\axelm\Desktop\COURS IUT INFO\Semestre 3\M3302 - Projet tutore - Mise en situation professionnelle\ptut-home-trainer\Home_Biking\Android\gen\AndroidManifest.xml:2:3323-3425
	android:theme
		ADDED from C:\Users\axelm\Desktop\COURS IUT INFO\Semestre 3\M3302 - Projet tutore - Mise en situation professionnelle\ptut-home-trainer\Home_Biking\Android\gen\AndroidManifest.xml:2:3426-3462
	android:name
		ADDED from C:\Users\axelm\Desktop\COURS IUT INFO\Semestre 3\M3302 - Projet tutore - Mise en situation professionnelle\ptut-home-trainer\Home_Biking\Android\gen\AndroidManifest.xml:2:3265-3322
activity#com.logicorp.home_biking.wdgen.GWDFFEN_Exercices$WDActiviteFenetre
ADDED from C:\Users\axelm\Desktop\COURS IUT INFO\Semestre 3\M3302 - Projet tutore - Mise en situation professionnelle\ptut-home-trainer\Home_Biking\Android\gen\AndroidManifest.xml:2:3544-3832
	android:screenOrientation
		ADDED from C:\Users\axelm\Desktop\COURS IUT INFO\Semestre 3\M3302 - Projet tutore - Mise en situation professionnelle\ptut-home-trainer\Home_Biking\Android\gen\AndroidManifest.xml:2:3752-3794
	android:hardwareAccelerated
		ADDED from C:\Users\axelm\Desktop\COURS IUT INFO\Semestre 3\M3302 - Projet tutore - Mise en situation professionnelle\ptut-home-trainer\Home_Biking\Android\gen\AndroidManifest.xml:2:3795-3830
	android:configChanges
		ADDED from C:\Users\axelm\Desktop\COURS IUT INFO\Semestre 3\M3302 - Projet tutore - Mise en situation professionnelle\ptut-home-trainer\Home_Biking\Android\gen\AndroidManifest.xml:2:3612-3714
	android:theme
		ADDED from C:\Users\axelm\Desktop\COURS IUT INFO\Semestre 3\M3302 - Projet tutore - Mise en situation professionnelle\ptut-home-trainer\Home_Biking\Android\gen\AndroidManifest.xml:2:3715-3751
	android:name
		ADDED from C:\Users\axelm\Desktop\COURS IUT INFO\Semestre 3\M3302 - Projet tutore - Mise en situation professionnelle\ptut-home-trainer\Home_Biking\Android\gen\AndroidManifest.xml:2:3554-3611
activity#com.logicorp.home_biking.wdgen.GWDFFEN_Programm_Perso$WDActiviteFenetre
ADDED from C:\Users\axelm\Desktop\COURS IUT INFO\Semestre 3\M3302 - Projet tutore - Mise en situation professionnelle\ptut-home-trainer\Home_Biking\Android\gen\AndroidManifest.xml:2:3832-4125
	android:screenOrientation
		ADDED from C:\Users\axelm\Desktop\COURS IUT INFO\Semestre 3\M3302 - Projet tutore - Mise en situation professionnelle\ptut-home-trainer\Home_Biking\Android\gen\AndroidManifest.xml:2:4045-4087
	android:hardwareAccelerated
		ADDED from C:\Users\axelm\Desktop\COURS IUT INFO\Semestre 3\M3302 - Projet tutore - Mise en situation professionnelle\ptut-home-trainer\Home_Biking\Android\gen\AndroidManifest.xml:2:4088-4123
	android:configChanges
		ADDED from C:\Users\axelm\Desktop\COURS IUT INFO\Semestre 3\M3302 - Projet tutore - Mise en situation professionnelle\ptut-home-trainer\Home_Biking\Android\gen\AndroidManifest.xml:2:3905-4007
	android:theme
		ADDED from C:\Users\axelm\Desktop\COURS IUT INFO\Semestre 3\M3302 - Projet tutore - Mise en situation professionnelle\ptut-home-trainer\Home_Biking\Android\gen\AndroidManifest.xml:2:4008-4044
	android:name
		ADDED from C:\Users\axelm\Desktop\COURS IUT INFO\Semestre 3\M3302 - Projet tutore - Mise en situation professionnelle\ptut-home-trainer\Home_Biking\Android\gen\AndroidManifest.xml:2:3842-3904
activity#com.logicorp.home_biking.wdgen.GWDFFEN_SeanceEnCours$WDActiviteFenetre
ADDED from C:\Users\axelm\Desktop\COURS IUT INFO\Semestre 3\M3302 - Projet tutore - Mise en situation professionnelle\ptut-home-trainer\Home_Biking\Android\gen\AndroidManifest.xml:2:4125-4418
	android:screenOrientation
		ADDED from C:\Users\axelm\Desktop\COURS IUT INFO\Semestre 3\M3302 - Projet tutore - Mise en situation professionnelle\ptut-home-trainer\Home_Biking\Android\gen\AndroidManifest.xml:2:4337-4380
	android:hardwareAccelerated
		ADDED from C:\Users\axelm\Desktop\COURS IUT INFO\Semestre 3\M3302 - Projet tutore - Mise en situation professionnelle\ptut-home-trainer\Home_Biking\Android\gen\AndroidManifest.xml:2:4381-4416
	android:configChanges
		ADDED from C:\Users\axelm\Desktop\COURS IUT INFO\Semestre 3\M3302 - Projet tutore - Mise en situation professionnelle\ptut-home-trainer\Home_Biking\Android\gen\AndroidManifest.xml:2:4197-4299
	android:theme
		ADDED from C:\Users\axelm\Desktop\COURS IUT INFO\Semestre 3\M3302 - Projet tutore - Mise en situation professionnelle\ptut-home-trainer\Home_Biking\Android\gen\AndroidManifest.xml:2:4300-4336
	android:name
		ADDED from C:\Users\axelm\Desktop\COURS IUT INFO\Semestre 3\M3302 - Projet tutore - Mise en situation professionnelle\ptut-home-trainer\Home_Biking\Android\gen\AndroidManifest.xml:2:4135-4196
activity#com.logicorp.home_biking.wdgen.GWDFFEN_Accueil$WDActiviteFenetre
ADDED from C:\Users\axelm\Desktop\COURS IUT INFO\Semestre 3\M3302 - Projet tutore - Mise en situation professionnelle\ptut-home-trainer\Home_Biking\Android\gen\AndroidManifest.xml:2:4418-4704
	android:screenOrientation
		ADDED from C:\Users\axelm\Desktop\COURS IUT INFO\Semestre 3\M3302 - Projet tutore - Mise en situation professionnelle\ptut-home-trainer\Home_Biking\Android\gen\AndroidManifest.xml:2:4624-4666
	android:hardwareAccelerated
		ADDED from C:\Users\axelm\Desktop\COURS IUT INFO\Semestre 3\M3302 - Projet tutore - Mise en situation professionnelle\ptut-home-trainer\Home_Biking\Android\gen\AndroidManifest.xml:2:4667-4702
	android:configChanges
		ADDED from C:\Users\axelm\Desktop\COURS IUT INFO\Semestre 3\M3302 - Projet tutore - Mise en situation professionnelle\ptut-home-trainer\Home_Biking\Android\gen\AndroidManifest.xml:2:4484-4586
	android:theme
		ADDED from C:\Users\axelm\Desktop\COURS IUT INFO\Semestre 3\M3302 - Projet tutore - Mise en situation professionnelle\ptut-home-trainer\Home_Biking\Android\gen\AndroidManifest.xml:2:4587-4623
	android:name
		ADDED from C:\Users\axelm\Desktop\COURS IUT INFO\Semestre 3\M3302 - Projet tutore - Mise en situation professionnelle\ptut-home-trainer\Home_Biking\Android\gen\AndroidManifest.xml:2:4428-4483
uses-library#org.apache.http.legacy
ADDED from C:\Users\axelm\Desktop\COURS IUT INFO\Semestre 3\M3302 - Projet tutore - Mise en situation professionnelle\ptut-home-trainer\Home_Biking\Android\gen\AndroidManifest.xml:2:4704-4782
	android:required
		ADDED from C:\Users\axelm\Desktop\COURS IUT INFO\Semestre 3\M3302 - Projet tutore - Mise en situation professionnelle\ptut-home-trainer\Home_Biking\Android\gen\AndroidManifest.xml:2:4756-4780
	android:name
		ADDED from C:\Users\axelm\Desktop\COURS IUT INFO\Semestre 3\M3302 - Projet tutore - Mise en situation professionnelle\ptut-home-trainer\Home_Biking\Android\gen\AndroidManifest.xml:2:4718-4755
activity#fr.pcsoft.wdjava.core.erreur.report.WDErrorReportActivity
ADDED from C:\Users\axelm\Desktop\COURS IUT INFO\Semestre 3\M3302 - Projet tutore - Mise en situation professionnelle\ptut-home-trainer\Home_Biking\Android\gen\AndroidManifest.xml:2:4782-5003
	tools:node
		ADDED from C:\Users\axelm\Desktop\COURS IUT INFO\Semestre 3\M3302 - Projet tutore - Mise en situation professionnelle\ptut-home-trainer\Home_Biking\Android\gen\AndroidManifest.xml:2:4981-5001
	xmlns:android
		ADDED from C:\Users\axelm\Desktop\COURS IUT INFO\Semestre 3\M3302 - Projet tutore - Mise en situation professionnelle\ptut-home-trainer\Home_Biking\Android\gen\AndroidManifest.xml:2:4792-4850
	android:theme
		ADDED from C:\Users\axelm\Desktop\COURS IUT INFO\Semestre 3\M3302 - Projet tutore - Mise en situation professionnelle\ptut-home-trainer\Home_Biking\Android\gen\AndroidManifest.xml:2:4924-4980
	android:name
		ADDED from C:\Users\axelm\Desktop\COURS IUT INFO\Semestre 3\M3302 - Projet tutore - Mise en situation professionnelle\ptut-home-trainer\Home_Biking\Android\gen\AndroidManifest.xml:2:4851-4923
activity#fr.pcsoft.wdjava.ui.activite.WDActivite$BlankActivity
ADDED from C:\Users\axelm\Desktop\COURS IUT INFO\Semestre 3\M3302 - Projet tutore - Mise en situation professionnelle\ptut-home-trainer\Home_Biking\Android\gen\AndroidManifest.xml:2:5003-5212
	tools:node
		ADDED from C:\Users\axelm\Desktop\COURS IUT INFO\Semestre 3\M3302 - Projet tutore - Mise en situation professionnelle\ptut-home-trainer\Home_Biking\Android\gen\AndroidManifest.xml:2:5190-5210
	xmlns:android
		ADDED from C:\Users\axelm\Desktop\COURS IUT INFO\Semestre 3\M3302 - Projet tutore - Mise en situation professionnelle\ptut-home-trainer\Home_Biking\Android\gen\AndroidManifest.xml:2:5013-5071
	android:theme
		ADDED from C:\Users\axelm\Desktop\COURS IUT INFO\Semestre 3\M3302 - Projet tutore - Mise en situation professionnelle\ptut-home-trainer\Home_Biking\Android\gen\AndroidManifest.xml:2:5141-5189
	android:name
		ADDED from C:\Users\axelm\Desktop\COURS IUT INFO\Semestre 3\M3302 - Projet tutore - Mise en situation professionnelle\ptut-home-trainer\Home_Biking\Android\gen\AndroidManifest.xml:2:5072-5140
service#fr.pcsoft.wdjava.core.service.WDServiceLocal
ADDED from C:\Users\axelm\Desktop\COURS IUT INFO\Semestre 3\M3302 - Projet tutore - Mise en situation professionnelle\ptut-home-trainer\Home_Biking\Android\gen\AndroidManifest.xml:2:5212-5282
	android:name
		ADDED from C:\Users\axelm\Desktop\COURS IUT INFO\Semestre 3\M3302 - Projet tutore - Mise en situation professionnelle\ptut-home-trainer\Home_Biking\Android\gen\AndroidManifest.xml:2:5221-5280
meta-data#fr.pcsoft.first_window_name
ADDED from C:\Users\axelm\Desktop\COURS IUT INFO\Semestre 3\M3302 - Projet tutore - Mise en situation professionnelle\ptut-home-trainer\Home_Biking\Android\gen\AndroidManifest.xml:2:5282-5371
	android:value
		ADDED from C:\Users\axelm\Desktop\COURS IUT INFO\Semestre 3\M3302 - Projet tutore - Mise en situation professionnelle\ptut-home-trainer\Home_Biking\Android\gen\AndroidManifest.xml:2:5336-5369
	android:name
		ADDED from C:\Users\axelm\Desktop\COURS IUT INFO\Semestre 3\M3302 - Projet tutore - Mise en situation professionnelle\ptut-home-trainer\Home_Biking\Android\gen\AndroidManifest.xml:2:5293-5335
meta-data#fr.pcsoft.splash_orientation_phone
ADDED from C:\Users\axelm\Desktop\COURS IUT INFO\Semestre 3\M3302 - Projet tutore - Mise en situation professionnelle\ptut-home-trainer\Home_Biking\Android\gen\AndroidManifest.xml:2:5371-5451
	android:value
		ADDED from C:\Users\axelm\Desktop\COURS IUT INFO\Semestre 3\M3302 - Projet tutore - Mise en situation professionnelle\ptut-home-trainer\Home_Biking\Android\gen\AndroidManifest.xml:2:5432-5449
	android:name
		ADDED from C:\Users\axelm\Desktop\COURS IUT INFO\Semestre 3\M3302 - Projet tutore - Mise en situation professionnelle\ptut-home-trainer\Home_Biking\Android\gen\AndroidManifest.xml:2:5382-5431
meta-data#fr.pcsoft.splash_orientation_tablet
ADDED from C:\Users\axelm\Desktop\COURS IUT INFO\Semestre 3\M3302 - Projet tutore - Mise en situation professionnelle\ptut-home-trainer\Home_Biking\Android\gen\AndroidManifest.xml:2:5451-5532
	android:value
		ADDED from C:\Users\axelm\Desktop\COURS IUT INFO\Semestre 3\M3302 - Projet tutore - Mise en situation professionnelle\ptut-home-trainer\Home_Biking\Android\gen\AndroidManifest.xml:2:5513-5530
	android:name
		ADDED from C:\Users\axelm\Desktop\COURS IUT INFO\Semestre 3\M3302 - Projet tutore - Mise en situation professionnelle\ptut-home-trainer\Home_Biking\Android\gen\AndroidManifest.xml:2:5462-5512
uses-sdk
ADDED from C:\Users\axelm\Desktop\COURS IUT INFO\Semestre 3\M3302 - Projet tutore - Mise en situation professionnelle\ptut-home-trainer\Home_Biking\Android\gen\AndroidManifest.xml:2:5546-5614
INJECTED from C:\Users\axelm\Desktop\COURS IUT INFO\Semestre 3\M3302 - Projet tutore - Mise en situation professionnelle\ptut-home-trainer\Home_Biking\Android\gen\AndroidManifest.xml:2:5546-5614
MERGED from [WD250Android.aar] C:\Users\axelm\.gradle\caches\transforms-2\files-2.1\aa17e02c37c68a248610e8389c2b7de6\WD250Android\AndroidManifest.xml:7:5-9:41
MERGED from [WD250Android.aar] C:\Users\axelm\.gradle\caches\transforms-2\files-2.1\aa17e02c37c68a248610e8389c2b7de6\WD250Android\AndroidManifest.xml:7:5-9:41
MERGED from [com.android.support:support-v4:28.0.0] C:\Users\axelm\.gradle\caches\transforms-2\files-2.1\69ee415b12564ec70670df83c9fdfa6f\support-v4-28.0.0\AndroidManifest.xml:20:5-44
MERGED from [com.android.support:support-v4:28.0.0] C:\Users\axelm\.gradle\caches\transforms-2\files-2.1\69ee415b12564ec70670df83c9fdfa6f\support-v4-28.0.0\AndroidManifest.xml:20:5-44
MERGED from [com.android.support:appcompat-v7:28.0.0] C:\Users\axelm\.gradle\caches\transforms-2\files-2.1\bbf07aa1da9ab954374e693dfcc335b9\appcompat-v7-28.0.0\AndroidManifest.xml:20:5-44
MERGED from [com.android.support:appcompat-v7:28.0.0] C:\Users\axelm\.gradle\caches\transforms-2\files-2.1\bbf07aa1da9ab954374e693dfcc335b9\appcompat-v7-28.0.0\AndroidManifest.xml:20:5-44
MERGED from [com.android.support:recyclerview-v7:28.0.0] C:\Users\axelm\.gradle\caches\transforms-2\files-2.1\967e8d778145ef395ac0dc868ec88b33\recyclerview-v7-28.0.0\AndroidManifest.xml:20:5-44
MERGED from [com.android.support:recyclerview-v7:28.0.0] C:\Users\axelm\.gradle\caches\transforms-2\files-2.1\967e8d778145ef395ac0dc868ec88b33\recyclerview-v7-28.0.0\AndroidManifest.xml:20:5-44
MERGED from [com.android.support:support-media-compat:28.0.0] C:\Users\axelm\.gradle\caches\transforms-2\files-2.1\d1a6c7ee41fbe72753318d9586f1a513\support-media-compat-28.0.0\AndroidManifest.xml:20:5-44
MERGED from [com.android.support:support-media-compat:28.0.0] C:\Users\axelm\.gradle\caches\transforms-2\files-2.1\d1a6c7ee41fbe72753318d9586f1a513\support-media-compat-28.0.0\AndroidManifest.xml:20:5-44
MERGED from [com.android.support:support-fragment:28.0.0] C:\Users\axelm\.gradle\caches\transforms-2\files-2.1\59df75d251431efe4d450d41cc6b083b\support-fragment-28.0.0\AndroidManifest.xml:20:5-44
MERGED from [com.android.support:support-fragment:28.0.0] C:\Users\axelm\.gradle\caches\transforms-2\files-2.1\59df75d251431efe4d450d41cc6b083b\support-fragment-28.0.0\AndroidManifest.xml:20:5-44
MERGED from [com.android.support:animated-vector-drawable:28.0.0] C:\Users\axelm\.gradle\caches\transforms-2\files-2.1\45d50504f4c11c4f549bb8efafb39de8\animated-vector-drawable-28.0.0\AndroidManifest.xml:20:5-44
MERGED from [com.android.support:animated-vector-drawable:28.0.0] C:\Users\axelm\.gradle\caches\transforms-2\files-2.1\45d50504f4c11c4f549bb8efafb39de8\animated-vector-drawable-28.0.0\AndroidManifest.xml:20:5-44
MERGED from [com.android.support:support-core-ui:28.0.0] C:\Users\axelm\.gradle\caches\transforms-2\files-2.1\ee7de4c472f1da0a0213606950b8c4e7\support-core-ui-28.0.0\AndroidManifest.xml:20:5-44
MERGED from [com.android.support:support-core-ui:28.0.0] C:\Users\axelm\.gradle\caches\transforms-2\files-2.1\ee7de4c472f1da0a0213606950b8c4e7\support-core-ui-28.0.0\AndroidManifest.xml:20:5-44
MERGED from [com.android.support:support-core-utils:28.0.0] C:\Users\axelm\.gradle\caches\transforms-2\files-2.1\e6827550b79bb297911c95f109ecf5ac\support-core-utils-28.0.0\AndroidManifest.xml:20:5-44
MERGED from [com.android.support:support-core-utils:28.0.0] C:\Users\axelm\.gradle\caches\transforms-2\files-2.1\e6827550b79bb297911c95f109ecf5ac\support-core-utils-28.0.0\AndroidManifest.xml:20:5-44
MERGED from [com.android.support:support-vector-drawable:28.0.0] C:\Users\axelm\.gradle\caches\transforms-2\files-2.1\cd2aa2e9401906350c2bd9da065e1f33\support-vector-drawable-28.0.0\AndroidManifest.xml:20:5-44
MERGED from [com.android.support:support-vector-drawable:28.0.0] C:\Users\axelm\.gradle\caches\transforms-2\files-2.1\cd2aa2e9401906350c2bd9da065e1f33\support-vector-drawable-28.0.0\AndroidManifest.xml:20:5-44
MERGED from [com.android.support:loader:28.0.0] C:\Users\axelm\.gradle\caches\transforms-2\files-2.1\e8e201b21520ad3812ed914e69a9b405\loader-28.0.0\AndroidManifest.xml:20:5-44
MERGED from [com.android.support:loader:28.0.0] C:\Users\axelm\.gradle\caches\transforms-2\files-2.1\e8e201b21520ad3812ed914e69a9b405\loader-28.0.0\AndroidManifest.xml:20:5-44
MERGED from [com.android.support:viewpager:28.0.0] C:\Users\axelm\.gradle\caches\transforms-2\files-2.1\00866cffd6a67b64ccbc8d2d951560dc\viewpager-28.0.0\AndroidManifest.xml:20:5-44
MERGED from [com.android.support:viewpager:28.0.0] C:\Users\axelm\.gradle\caches\transforms-2\files-2.1\00866cffd6a67b64ccbc8d2d951560dc\viewpager-28.0.0\AndroidManifest.xml:20:5-44
MERGED from [com.android.support:coordinatorlayout:28.0.0] C:\Users\axelm\.gradle\caches\transforms-2\files-2.1\5d3c4801a740528a85d2e670b2dd23b7\coordinatorlayout-28.0.0\AndroidManifest.xml:20:5-44
MERGED from [com.android.support:coordinatorlayout:28.0.0] C:\Users\axelm\.gradle\caches\transforms-2\files-2.1\5d3c4801a740528a85d2e670b2dd23b7\coordinatorlayout-28.0.0\AndroidManifest.xml:20:5-44
MERGED from [com.android.support:drawerlayout:28.0.0] C:\Users\axelm\.gradle\caches\transforms-2\files-2.1\109e2debe5d47fa4d8f7fe1f15c611f3\drawerlayout-28.0.0\AndroidManifest.xml:20:5-44
MERGED from [com.android.support:drawerlayout:28.0.0] C:\Users\axelm\.gradle\caches\transforms-2\files-2.1\109e2debe5d47fa4d8f7fe1f15c611f3\drawerlayout-28.0.0\AndroidManifest.xml:20:5-44
MERGED from [com.android.support:slidingpanelayout:28.0.0] C:\Users\axelm\.gradle\caches\transforms-2\files-2.1\640954c0bd14789761b1de9b02daedae\slidingpanelayout-28.0.0\AndroidManifest.xml:20:5-44
MERGED from [com.android.support:slidingpanelayout:28.0.0] C:\Users\axelm\.gradle\caches\transforms-2\files-2.1\640954c0bd14789761b1de9b02daedae\slidingpanelayout-28.0.0\AndroidManifest.xml:20:5-44
MERGED from [com.android.support:customview:28.0.0] C:\Users\axelm\.gradle\caches\transforms-2\files-2.1\8c3534d87178de95eb9cb75f77214055\customview-28.0.0\AndroidManifest.xml:20:5-44
MERGED from [com.android.support:customview:28.0.0] C:\Users\axelm\.gradle\caches\transforms-2\files-2.1\8c3534d87178de95eb9cb75f77214055\customview-28.0.0\AndroidManifest.xml:20:5-44
MERGED from [com.android.support:swiperefreshlayout:28.0.0] C:\Users\axelm\.gradle\caches\transforms-2\files-2.1\49f9e7bd74012c3341e4a938529d56fe\swiperefreshlayout-28.0.0\AndroidManifest.xml:20:5-44
MERGED from [com.android.support:swiperefreshlayout:28.0.0] C:\Users\axelm\.gradle\caches\transforms-2\files-2.1\49f9e7bd74012c3341e4a938529d56fe\swiperefreshlayout-28.0.0\AndroidManifest.xml:20:5-44
MERGED from [com.android.support:asynclayoutinflater:28.0.0] C:\Users\axelm\.gradle\caches\transforms-2\files-2.1\699e03d2cbc668da0d189768d4447a8b\asynclayoutinflater-28.0.0\AndroidManifest.xml:20:5-44
MERGED from [com.android.support:asynclayoutinflater:28.0.0] C:\Users\axelm\.gradle\caches\transforms-2\files-2.1\699e03d2cbc668da0d189768d4447a8b\asynclayoutinflater-28.0.0\AndroidManifest.xml:20:5-44
MERGED from [com.android.support:support-compat:28.0.0] C:\Users\axelm\.gradle\caches\transforms-2\files-2.1\dd1cf78f22bdd94f550130b281f27c97\support-compat-28.0.0\AndroidManifest.xml:20:5-44
MERGED from [com.android.support:support-compat:28.0.0] C:\Users\axelm\.gradle\caches\transforms-2\files-2.1\dd1cf78f22bdd94f550130b281f27c97\support-compat-28.0.0\AndroidManifest.xml:20:5-44
MERGED from [com.android.support:versionedparcelable:28.0.0] C:\Users\axelm\.gradle\caches\transforms-2\files-2.1\8bb2478d12c0baf5b421024800cd7dbb\versionedparcelable-28.0.0\AndroidManifest.xml:20:5-44
MERGED from [com.android.support:versionedparcelable:28.0.0] C:\Users\axelm\.gradle\caches\transforms-2\files-2.1\8bb2478d12c0baf5b421024800cd7dbb\versionedparcelable-28.0.0\AndroidManifest.xml:20:5-44
MERGED from [com.android.support:cursoradapter:28.0.0] C:\Users\axelm\.gradle\caches\transforms-2\files-2.1\406adf1b047a0fb17968819a70f96dd9\cursoradapter-28.0.0\AndroidManifest.xml:20:5-44
MERGED from [com.android.support:cursoradapter:28.0.0] C:\Users\axelm\.gradle\caches\transforms-2\files-2.1\406adf1b047a0fb17968819a70f96dd9\cursoradapter-28.0.0\AndroidManifest.xml:20:5-44
MERGED from [android.arch.lifecycle:runtime:1.1.1] C:\Users\axelm\.gradle\caches\transforms-2\files-2.1\2a54fb7d4a09e43fd13a659c38a9bf2a\runtime-1.1.1\AndroidManifest.xml:20:5-44
MERGED from [android.arch.lifecycle:runtime:1.1.1] C:\Users\axelm\.gradle\caches\transforms-2\files-2.1\2a54fb7d4a09e43fd13a659c38a9bf2a\runtime-1.1.1\AndroidManifest.xml:20:5-44
MERGED from [com.android.support:documentfile:28.0.0] C:\Users\axelm\.gradle\caches\transforms-2\files-2.1\d86ffcf39ba8aec22a7ebfd4c1172e3f\documentfile-28.0.0\AndroidManifest.xml:20:5-44
MERGED from [com.android.support:documentfile:28.0.0] C:\Users\axelm\.gradle\caches\transforms-2\files-2.1\d86ffcf39ba8aec22a7ebfd4c1172e3f\documentfile-28.0.0\AndroidManifest.xml:20:5-44
MERGED from [com.android.support:localbroadcastmanager:28.0.0] C:\Users\axelm\.gradle\caches\transforms-2\files-2.1\7f3ed6ce49569e0dbf9accf24b63a15b\localbroadcastmanager-28.0.0\AndroidManifest.xml:20:5-44
MERGED from [com.android.support:localbroadcastmanager:28.0.0] C:\Users\axelm\.gradle\caches\transforms-2\files-2.1\7f3ed6ce49569e0dbf9accf24b63a15b\localbroadcastmanager-28.0.0\AndroidManifest.xml:20:5-44
MERGED from [com.android.support:print:28.0.0] C:\Users\axelm\.gradle\caches\transforms-2\files-2.1\707c6356496c3791d321c055fe777af8\print-28.0.0\AndroidManifest.xml:20:5-44
MERGED from [com.android.support:print:28.0.0] C:\Users\axelm\.gradle\caches\transforms-2\files-2.1\707c6356496c3791d321c055fe777af8\print-28.0.0\AndroidManifest.xml:20:5-44
MERGED from [com.android.support:interpolator:28.0.0] C:\Users\axelm\.gradle\caches\transforms-2\files-2.1\525bf97e52a2b96ba94f7509a71e8a56\interpolator-28.0.0\AndroidManifest.xml:20:5-44
MERGED from [com.android.support:interpolator:28.0.0] C:\Users\axelm\.gradle\caches\transforms-2\files-2.1\525bf97e52a2b96ba94f7509a71e8a56\interpolator-28.0.0\AndroidManifest.xml:20:5-44
MERGED from [android.arch.lifecycle:viewmodel:1.1.1] C:\Users\axelm\.gradle\caches\transforms-2\files-2.1\426821499609b124edd91485548e30d0\viewmodel-1.1.1\AndroidManifest.xml:20:5-44
MERGED from [android.arch.lifecycle:viewmodel:1.1.1] C:\Users\axelm\.gradle\caches\transforms-2\files-2.1\426821499609b124edd91485548e30d0\viewmodel-1.1.1\AndroidManifest.xml:20:5-44
MERGED from [android.arch.lifecycle:livedata:1.1.1] C:\Users\axelm\.gradle\caches\transforms-2\files-2.1\b5f1a18436322a4d6243b4d563cfece4\livedata-1.1.1\AndroidManifest.xml:20:5-44
MERGED from [android.arch.lifecycle:livedata:1.1.1] C:\Users\axelm\.gradle\caches\transforms-2\files-2.1\b5f1a18436322a4d6243b4d563cfece4\livedata-1.1.1\AndroidManifest.xml:20:5-44
MERGED from [android.arch.lifecycle:livedata-core:1.1.1] C:\Users\axelm\.gradle\caches\transforms-2\files-2.1\6104c576404b17797d5f42ae60105d1d\livedata-core-1.1.1\AndroidManifest.xml:20:5-44
MERGED from [android.arch.lifecycle:livedata-core:1.1.1] C:\Users\axelm\.gradle\caches\transforms-2\files-2.1\6104c576404b17797d5f42ae60105d1d\livedata-core-1.1.1\AndroidManifest.xml:20:5-44
MERGED from [android.arch.core:runtime:1.1.1] C:\Users\axelm\.gradle\caches\transforms-2\files-2.1\7c5e711cb7599bc18a19cc1df98bc8d6\runtime-1.1.1\AndroidManifest.xml:20:5-44
MERGED from [android.arch.core:runtime:1.1.1] C:\Users\axelm\.gradle\caches\transforms-2\files-2.1\7c5e711cb7599bc18a19cc1df98bc8d6\runtime-1.1.1\AndroidManifest.xml:20:5-44
INJECTED from C:\Users\axelm\Desktop\COURS IUT INFO\Semestre 3\M3302 - Projet tutore - Mise en situation professionnelle\ptut-home-trainer\Home_Biking\Android\gen\AndroidManifest.xml:2:5546-5614
	android:targetSdkVersion
		ADDED from C:\Users\axelm\Desktop\COURS IUT INFO\Semestre 3\M3302 - Projet tutore - Mise en situation professionnelle\ptut-home-trainer\Home_Biking\Android\gen\AndroidManifest.xml:2:5583-5612
	android:minSdkVersion
		ADDED from C:\Users\axelm\Desktop\COURS IUT INFO\Semestre 3\M3302 - Projet tutore - Mise en situation professionnelle\ptut-home-trainer\Home_Biking\Android\gen\AndroidManifest.xml:2:5556-5582
		INJECTED from C:\Users\axelm\Desktop\COURS IUT INFO\Semestre 3\M3302 - Projet tutore - Mise en situation professionnelle\ptut-home-trainer\Home_Biking\Android\gen\AndroidManifest.xml
		INJECTED from C:\Users\axelm\Desktop\COURS IUT INFO\Semestre 3\M3302 - Projet tutore - Mise en situation professionnelle\ptut-home-trainer\Home_Biking\Android\gen\AndroidManifest.xml
supports-screens
ADDED from C:\Users\axelm\Desktop\COURS IUT INFO\Semestre 3\M3302 - Projet tutore - Mise en situation professionnelle\ptut-home-trainer\Home_Biking\Android\gen\AndroidManifest.xml:2:5614-5773
	android:largeScreens
		ADDED from C:\Users\axelm\Desktop\COURS IUT INFO\Semestre 3\M3302 - Projet tutore - Mise en situation professionnelle\ptut-home-trainer\Home_Biking\Android\gen\AndroidManifest.xml:2:5689-5716
	android:smallScreens
		ADDED from C:\Users\axelm\Desktop\COURS IUT INFO\Semestre 3\M3302 - Projet tutore - Mise en situation professionnelle\ptut-home-trainer\Home_Biking\Android\gen\AndroidManifest.xml:2:5632-5659
	android:normalScreens
		ADDED from C:\Users\axelm\Desktop\COURS IUT INFO\Semestre 3\M3302 - Projet tutore - Mise en situation professionnelle\ptut-home-trainer\Home_Biking\Android\gen\AndroidManifest.xml:2:5660-5688
	android:xlargeScreens
		ADDED from C:\Users\axelm\Desktop\COURS IUT INFO\Semestre 3\M3302 - Projet tutore - Mise en situation professionnelle\ptut-home-trainer\Home_Biking\Android\gen\AndroidManifest.xml:2:5717-5745
	android:anyDensity
		ADDED from C:\Users\axelm\Desktop\COURS IUT INFO\Semestre 3\M3302 - Projet tutore - Mise en situation professionnelle\ptut-home-trainer\Home_Biking\Android\gen\AndroidManifest.xml:2:5746-5771
uses-permission#android.permission.WRITE_EXTERNAL_STORAGE
ADDED from C:\Users\axelm\Desktop\COURS IUT INFO\Semestre 3\M3302 - Projet tutore - Mise en situation professionnelle\ptut-home-trainer\Home_Biking\Android\gen\AndroidManifest.xml:2:5773-5848
	android:name
		ADDED from C:\Users\axelm\Desktop\COURS IUT INFO\Semestre 3\M3302 - Projet tutore - Mise en situation professionnelle\ptut-home-trainer\Home_Biking\Android\gen\AndroidManifest.xml:2:5790-5846
